Complete Example 2 • fmtr
…
=========================================================================
Prepare Data
=========================================================================

# library 'sdtm': 1 items
- attributes: csv not loaded
- path: C:/Users/dbosa/AppData/Local/R/win-library/4.3/fmtr/extdata
- items:
  Name Extension Rows Cols    Size        LastModified
1   DM       csv   87   24 45.5 Kb 2023-12-16 23:10:51

Subset DM dataset

# A tibble: 85 × 4
   USUBJID    SEX     AGE ARM  
   <chr>      <chr> <dbl> <chr>
 1 ABC-01-049 M        39 ARM D
 2 ABC-01-050 M        47 ARM B
 3 ABC-01-051 M        34 ARM A
 4 ABC-01-052 F        45 ARM C
 5 ABC-01-053 F        26 ARM B
 6 ABC-01-054 M        44 ARM D
 7 ABC-01-055 F        47 ARM C
 8 ABC-01-056 M        31 ARM A
 9 ABC-01-113 M        74 ARM D
10 ABC-01-114 F        72 ARM B
# ℹ 75 more rows
# ℹ Use `print(n = ...)` to see more rows
…
=========================================================================
Create frequency counts for Age Group
=========================================================================

Create age group frequency counts

datastep: columns increased from 4 to 5

# A tibble: 85 × 5
   USUBJID    SEX     AGE ARM   AGECAT  
   <chr>      <chr> <dbl> <chr> <chr>   
 1 ABC-01-049 M        39 ARM D 25 to 44
 2 ABC-01-050 M        47 ARM B 45 to 64
 3 ABC-01-051 M        34 ARM A 25 to 44
 4 ABC-01-052 F        45 ARM C 45 to 64
 5 ABC-01-053 F        26 ARM B 25 to 44
 6 ABC-01-054 M        44 ARM D 25 to 44
 7 ABC-01-055 F        47 ARM C 45 to 64
 8 ABC-01-056 M        31 ARM A 25 to 44
 9 ABC-01-113 M        74 ARM D >= 65   
10 ABC-01-114 F        72 ARM B >= 65   
# ℹ 75 more rows
# ℹ Use `print(n = ...)` to see more rows
…
=========================================================================
Create frequency counts for SEX
=========================================================================

Create sex frequency counts

datastep: columns started with 4 and ended with 4

# A tibble: 85 × 4
   USUBJID    SEX      AGE ARM  
   <chr>      <chr>  <dbl> <chr>
 1 ABC-01-049 Male      39 ARM D
 2 ABC-01-050 Male      47 ARM B
 3 ABC-01-051 Male      34 ARM A
 4 ABC-01-052 Female    45 ARM C
 5 ABC-01-053 Female    26 ARM B
 6 ABC-01-054 Male      44 ARM D
 7 ABC-01-055 Female    47 ARM C
 8 ABC-01-056 Male      31 ARM A
 9 ABC-01-113 Male      74 ARM D
10 ABC-01-114 Female    72 ARM B
# ℹ 75 more rows
# ℹ Use `print(n = ...)` to see more rows
…
