Complete Example 1 • fmtr
…
# library 'sdtm': 1 items
- attributes: csv not loaded
- path: C:/Users/dbosa/Documents/R/win-library/4.1/fmtr/extdata
- items:
  Name Extension Rows Cols    Size        LastModified
1   DM       csv   87   24 45.4 Kb 2021-11-16 10:34:25

lib_load: library 'sdtm' loaded

select: dropped 20 variables (STUDYID, DOMAIN, SUBJID, RFSTDTC, RFENDTC, <U+0085>)

filter: removed 2 rows (2%), 85 rows remaining

# A tibble: 85 x 4
   USUBJID    SEX     AGE ARM  
   <chr>      <chr> <dbl> <chr>
 1 ABC-01-049 M        39 ARM D
 2 ABC-01-050 M        47 ARM B
 3 ABC-01-051 M        34 ARM A
 4 ABC-01-052 F        45 ARM C
 5 ABC-01-053 F        26 ARM B
 6 ABC-01-054 M        44 ARM D
 7 ABC-01-055 F        47 ARM C
 8 ABC-01-056 M        31 ARM A
 9 ABC-01-113 M        74 ARM D
10 ABC-01-114 F        72 ARM B
# ... with 75 more rows
…
